Analyse des commentaires clients
…
## # A tibble: 36,182 × 2
##         bigram     n
##          <chr> <int>
## 1     la macif   639
## 2      je suis   306
## 3        de la   232
## 4       en cas   194
## 5       pas de   185
## 6       que je   185
## 7       cas de   184
## 8  de sinistre   175
## 9         à la   156
## 10        a la   150
## # ... with 36,172 more rows
…
